Introduction to R -
…
The stringr package offers a number of functions to manipulate strings. I will cover a few of them here that I find most useful. You can view a cheat sheet of various stringr functions here.

Concatenate Strings

The str_c() function, like the paste() function, concatenates strings. It is better than paste() because it handles missing values better (like most tidyverse functions).

starwars |> 
  mutate(hair_eye_info = str_c(hair_color, 
                               " hair and ", 
                               eye_color, 
                               " eyes")) |> # concatenate strings
  count(hair_eye_info) # tabulate frequencies

# A tibble: 31 × 2
   hair_eye_info                             n
   <chr>                                 <int>
 1 auburn hair and blue eyes                 1
 2 auburn, grey hair and blue eyes           1
 3 auburn, white hair and blue-gray eyes     1
 4 black hair and blue eyes                  2
 5 black hair and brown eyes                 9
 6 black hair and dark eyes                  1
 7 black hair and yellow eyes                1
 8 blond hair and blue eyes                  3
 9 blonde hair and yellow eyes               1
10 brown hair and blue eyes                  7
# ℹ 21 more rows
…
