Introduction to R -
…
Create the full county code by concatenating the 2-digit state code and 3-digit county code. Call the new variable geoid.

alabama <- alabama |> 
  mutate(geoid = str_c(state_code, county_code))

alabama

# A tibble: 67 × 7
   state state_code state_name county_code county          alpha_type      geoid
   <chr> <chr>      <chr>      <chr>       <chr>           <chr>           <chr>
 1 AL    01         Alabama    001         Autauga County  Low Alphabetic… 01001
 2 AL    01         Alabama    003         Baldwin County  Low Alphabetic… 01003
 3 AL    01         Alabama    005         Barbour County  Low Alphabetic… 01005
 4 AL    01         Alabama    007         Bibb County     Low Alphabetic… 01007
 5 AL    01         Alabama    009         Blount County   Low Alphabetic… 01009
 6 AL    01         Alabama    011         Bullock County  Low Alphabetic… 01011
 7 AL    01         Alabama    013         Butler County   Low Alphabetic… 01013
 8 AL    01         Alabama    015         Calhoun County  Low Alphabetic… 01015
 9 AL    01         Alabama    017         Chambers County Low Alphabetic… 01017
10 AL    01         Alabama    019         Cherokee County Low Alphabetic… 01019
# ℹ 57 more rows
…
