Introduction to R -
…
Class by Semester by Student

Reshape the data long such that grade represents a column with all grades and grade_type represents whether the grade is for a mid-term, a final exam, or overall. Assign to class_long.

class_long <- class_data |> 
  pivot_longer(cols = c(mid_term, 
                        final_exam, 
                        overall), 
               names_to = "grade_type", 
               values_to = "grade")

class_long

# A tibble: 48 × 6
   student class   attendance semester grade_type grade
     <dbl> <chr>        <dbl>    <dbl> <chr>      <chr>
 1       1 English         90        1 mid_term   A    
 2       1 English         90        1 final_exam A    
 3       1 English         90        1 overall    A    
 4       1 English         90        2 mid_term   A    
 5       1 English         90        2 final_exam A    
 6       1 English         90        2 overall    A    
 7       1 Science         90        1 mid_term   A    
 8       1 Science         90        1 final_exam A    
 9       1 Science         90        1 overall    A    
10       1 Science         90        2 mid_term   A    
# ℹ 38 more rows
…
