Introduction to R -
…
group

The group aesthetic by default is set to the interaction of all discrete variables in the plot. This usually works correctly, but when it does not, we need to explicitly define the group.

The Oxboys data frame from the nlme package contains the height and age variables, by Subject.

tibble(nlme::Oxboys)

# A tibble: 234 × 4
   Subject     age height Occasion
   <ord>     <dbl>  <dbl> <ord>   
 1 1       -1        140. 1       
 2 1       -0.748    143. 2       
 3 1       -0.463    145. 3       
 4 1       -0.164    147. 4       
 5 1       -0.0027   148. 5       
 6 1        0.247    150. 6       
 7 1        0.556    152. 7       
 8 1        0.778    153. 8       
 9 1        0.994    156. 9       
10 2       -1        137. 1       
# ℹ 224 more rows
…
