Introduction to R -
…
Remove, rename, and reorder columns with select()

select() drops columns from a data frame and/or reorders the columns in a data frame. The arguments after the name of the data frame should be the names of columns you wish to keep, without quotes. All other columns not listed are dropped.

To rename a variable, use the syntax <new_name>  = <old_name>.

# remove, rename, and/or reorder variables

select(.data = starwars, 
       name, 
       height,
       eye_color,
       year = birth_year)

# A tibble: 87 × 4
   name               height eye_color  year
   <chr>               <int> <chr>     <dbl>
 1 Luke Skywalker        172 blue       19  
 2 C-3PO                 167 yellow    112  
 3 R2-D2                  96 red        33  
 4 Darth Vader           202 yellow     41.9
 5 Leia Organa           150 brown      19  
 6 Owen Lars             178 blue       52  
 7 Beru Whitesun Lars    165 blue       47  
 8 R5-D4                  97 red        NA  
 9 Biggs Darklighter     183 brown      24  
10 Obi-Wan Kenobi        182 blue-gray  57  
# ℹ 77 more rows
…
# A tibble: 3 × 2
  gender        n
  <chr>     <int>
1 feminine     17
2 masculine    66
3 <NA>          4

# tabulate by more than one variable

count(starwars, 
      gender,
      species)

# A tibble: 42 × 3
   gender    species        n
   <chr>     <chr>      <int>
 1 feminine  Clawdite       1
 2 feminine  Droid          1
 3 feminine  Human          9
 4 feminine  Kaminoan       1
 5 feminine  Mirialan       2
 6 feminine  Tholothian     1
 7 feminine  Togruta        1
 8 feminine  Twi'lek        1
 9 masculine Aleena         1
10 masculine Besalisk       1
# ℹ 32 more rows
…
Now let’s see what that looks like with the grouped data.

summarise(.data = grouped, 
          my_mean = mean(height, na.rm = TRUE), 
          my_sd = sd(height, na.rm = TRUE), 
          total_count = n())

`summarise()` has grouped output by 'species'. You can override using the
`.groups` argument.

# A tibble: 42 × 5
# Groups:   species [38]
   species   gender    my_mean my_sd total_count
   <chr>     <chr>       <dbl> <dbl>       <int>
 1 Aleena    masculine      79  NA             1
 2 Besalisk  masculine     198  NA             1
 3 Cerean    masculine     198  NA             1
 4 Chagrian  masculine     196  NA             1
 5 Clawdite  feminine      168  NA             1
 6 Droid     feminine       96  NA             1
 7 Droid     masculine     140  52.0           5
 8 Dug       masculine     112  NA             1
 9 Ewok      masculine      88  NA             1
10 Geonosian masculine     183  NA             1
# ℹ 32 more rows
…
